\t\xbf\x97\xe8\xf4\xfb\xf7\xf4\xfb\x00;\xa2\xa0\x88I\xa1u\xb2$\x8f\xf2\x86{\xa9\x0b\xc0\x91\xfcM\xc7\xafN_PublicKey(65462964609473197206511901989515063852488651816932531527920116930066492247839,65537)
D\x16\x18\x17f\x11Z\xdf)x`\xfa\x9fc}\xcc\x82\xca\xba\x91]\xb0\xcazY\x19\xb6\x1fu\xe9\xfa\xbb_PublicKey(70522929974469314931544817757466358274757419346612995867321706443817159610497, 65537)
R\xda{\xf6n\xb0\x8b\xdeh\xc9\xd4\x1dH\x1d\xc1\xeax\xb9\x8f+:VSse\xee\x0f*\x99\xd8\xe5\xed_PublicKey(61692622662012579005851929435318207757089956500291369218978346363493739306703, 65537)
\x0f6Y\xb0\xdcF\xe1\xa2\xf8\x85\x16\xffLd\xd6\x93A\xf7\x11\xf6,<\xb19\x84\xb5\xdd\xd8N#tV_PublicKey(103426083850525725027035932791217016591237023124393163932681774970894684552391, 65537)
4\xfczN\xe1\x89+\xb3\xa4\x07\x11\xaf\xdd\xf7\t\xf2\xc0>R\xc8\x1a\x1e\xe9\xc0\x01\x89\x172\x1cV\xa0_PublicKey(62770325545802563247245172821718149790767699855130887394697072966487727526913, 65537)
\x03\xb6;\x86,c\x05R6\xf1\x8f\x91\xe2\xfc\x13;Z\xe7L\x0c/*\xf48\xe3\xa4\xfe\xb3Gsz_PublicKey(64888429933863613467080301388393153046839822508375899581261014490744909084503, 65537)
6\xf2\x08V\xc7B\xd8Py\x16\xc0\xc4\x19wxj\xd4P\xb3\x1f79x`\xd5\xa6\xe1\xb9x\x7f\x14\x83_PublicKey(77572450786987628492011249892721243221680736681533564123169846333085782245471, 65537)
*\xfe\x06\x03+I\n\x12]\x9c\xf9\n\n@\xbb/\xc8\xd07\xa6H\xd3\x98\x07z\x8dk\x01\x11\xb4\xb9\x06_PublicKey(71200043947950707162410532920884893423607213107199703681231172718434061179891, 65537)
k\x10\x1cX\xe9\xe2R9\x86\xfak\x94\xee\xb6R\xb7\xe1Y\xaa\x8b\xd64\xf9q\x9aG$s\xe6\xecV+_PublicKey(65969806803620653380181646832536109992076346771784375352800974106932646269651, 65537)
m\xb0L\xf5\xe3'q\xa5'\xc6\x03\xe1\xdd\xb7\x91\x16uJ\xfbY\x02c\x14\xfdz\xe3\x13\x8dX\xa8p\xf2_PublicKey(67498359867309702913627875424677550823605856492936279845347557609091204551179, 65537)
